-1	2.5
-0.983963667156498	2.4763549256973
-0.96714015435991	2.45152164496615
-0.947428293994656	2.42829633709075
-0.926856144639049	2.4051133930693
-0.906363522666412	2.38133971293213
-0.885885460253498	2.3569440356687
-0.865334664822638	2.33202882863478
-0.844564429913773	2.30660226738938
-0.82369671405285	2.28040962790305
-0.802358812354404	2.2541638055693
-0.780339174277487	2.22745679651273
-0.757544965793728	2.2007174119567
-0.733389048376095	2.17403196495496
-0.709516522408535	2.14608626278902
-0.68528745099723	2.11773283880455
-0.660324790725723	2.08876482593906
-0.634088689900555	2.05976083864645
-0.604268305430979	2.03275308419466
-0.573225864841372	2.00464032552784
-0.541008894913084	1.97477846307756
-0.508942834415334	1.94570189559366
-0.473537970570138	1.91503981078084
-0.43882400906925	1.88421257257927
-0.402429204981497	1.85050613036967
-0.365838363651584	1.81664999644222
-0.324091246816094	1.78188513767785
-0.277496629017283	1.7482393992685
-0.227811895326491	1.71290446320522
-0.177811895326491	1.67412855026779
-0.127811895326491	1.6312057636404
-0.0778118953264914	1.58357054371034
-0.0278118953264913	1.53357054371035
0.000275229768775145	1.49684762730148
0.0291737555255994	1.46019946462301
0.0556126126312415	1.4236332456326
0.0633281036074767	1.40108623634873
0.0840280769979638	1.36450853516835
0.099087745025563	1.34243572764204
0.106924239934223	1.32018219377028
0.119848139052597	1.29398808795992
0.129277868113766	1.26724592466006
0.138222027641194	1.24332445298594
0.147160106424612	1.22110923534197
0.156108553417952	1.20189457833851
0.165517694827947	1.18423123029339
0.17455685689349	1.16886168634925
0.178478658050452	1.15460461066779
0.187589001551755	1.13508898166759
0.197277080852255	1.1154057967834
0.200973404842193	1.09621943592775
0.204265195820482	1.08121650812396
0.208402874864508	1.07337671823869
0.218435779564869	1.05598054859078
0.221720141797046	1.03789298662617
0.227019130058656	1.02788808853621
0.229887402001385	1.01790954746816
0.235520858360638	1.00027006232663
0.239036372553073	0.990035423609208
0.242048561682617	0.981862298153895
0.245747271238949	0.964751107343527
0.250546265700276	0.95901149805333
0.255626735828879	0.948724362831123
0.255039715677436	0.933962754191053
0.25727856650981	0.932877765066922
0.263880773551969	0.916526479268663
0.265997512802864	0.910779363963256
0.27066777907394	0.902201126353703
0.270235259025561	0.889740133463847
0.272739895125134	0.888345415437184
0.27456436589313	0.873021885446997
0.276569508846915	0.873589090469589
0.281563287194435	0.860651256290047
0.283722571873253	0.857078961563371
0.287605099884024	0.848787432592685
0.287374147404731	0.841554404602216
0.289016437738992	0.837653871850194
0.288929902552901	0.827113664396821
0.291473621430694	0.827251819869533
0.291123305542695	0.814292383097477
0.292355037628286	0.817486270252744
0.294813067620448	0.803735295355487
0.294760421613802	0.807776692788059
0.298342105390539	0.794944231990433
0.298309785137216	0.797118239185899
0.30193589821175	0.786591504071985
0.301213295259965	0.787331480170672
0.305165504845262	0.778638123967642
0.304691904425359	0.778410191644735
0.306388368575765	0.771454857816977
0.308508405469357	0.769814791621574
0.309457075615055	0.76508472677175
0.308623156993247	0.762579347514059
0.31160932215463	0.758208228563713
0.312842275703699	0.755130680868337
0.313215799455992	0.753024152975022
0.311952746362165	0.7494293410625
0.312945143283975	0.747165969900269
0.314036878085999	0.74228908960802
0.316189229556071	0.741777887227221
0.316335651070543	0.737438354827156
